$NOD
763
2 1 0 0
3 0 1 0
4 20 0 0
5 20 10 0
6 0 10 0
7 1.206013534505861 0 0
8 1.418118353469012 0 0
9 1.636527189994453 0 0
10 1.861440206417682 0 0
11 2.093046076795217 0 0
12 2.331522948551396 0 0
13 2.577201691746764 0 0
14 2.830170745376134 0 0
15 3.090641898167693 0 0
16 3.358914275527534 0 0
17 3.63519699754888 0 0
18 3.919683749313606 0 0
19 4.212653255289449 0 0
20 4.514367907381728 0 0
21 4.825187704926117 0 0
22 5.145032565484667 0 0
23 5.474576637106475 0 0
24 5.814005319763816 0 0
25 6.163362151586018 0 0
26 6.523201590015979 0 0
27 6.893810429058595 0 0
28 7.275419624607133 0 0
29 7.668308525305362 0 0
30 8.073142862070421 0 0
31 8.489929990380743 0 0
32 8.919109263033791 0 0
33 9.361093669157441 0 0
34 9.816272138536647 0 0
35 10.28501158493988 0 0
36 10.7676587243882 0 0
37 11.2647360133705 0 0
38 11.77672102533786 0 0
39 12.30382668704232 0 0
40 12.84673187457427 0 0
41 13.40585543785283 0 0
42 13.9815937385213 0 0
43 14.57449200308 0 0
44 15.1852797084562 0 0
45 15.81386767889971 0 0
46 16.4613311228839 0 0
47 17.12841246943218 0 0
48 17.81510419518918 0 0
49 18.52186460578689 0 0
50 19.25049653815349 0 0
51 20 0.7692307692307461 0
52 20 1.538461538461492 0
53 20 2.307692307692238 0
54 20 3.07692307692299 0
55 20 3.846153846153744 0
56 20 4.615384615384499 0
57 20 5.384615384615254 0
58 20 6.153846153846008 0
59 20 6.923076923076761 0
60 20 7.692307692307533 0
61 20 8.461538461538357 0
62 20 9.230769230769178 0
63 19.23076923076924 10 0
64 18.46153846153848 10 0
65 17.69230769230772 10 0
66 16.92307692307696 10 0
67 16.1538461538462 10 0
68 15.38461538461544 10 0
69 14.61538461538468 10 0
70 13.84615384615391 10 0
71 13.07692307692315 10 0
72 12.30769230769239 10 0
73 11.53846153846163 10 0
74 10.76923076923087 10 0
75 10.00000000000011 10 0
76 9.230769230769351 10 0
77 8.46153846153859 10 0
78 7.692307692307829 10 0
79 6.923076923077067 10 0
80 6.153846153846308 10 0
81 5.384615384615545 10 0
82 4.615384615384768 10 0
83 3.846153846153975 10 0
84 3.076923076923179 10 0
85 2.307692307692384 10 0
86 1.538461538461591 10 0
87 0.7692307692307954 10 0
88 0 9.251535517320097 0
89 0 8.548565850369496 0
90 0 7.888285402264345 0
91 0 7.268694903136434 0
92 0 6.686697844950824 0
93 0 6.140208037475576 0
94 0 5.626859428780887 0
95 0 5.144886054285973 0
96 0 4.692472247341873 0
97 0 4.267594696661647 0
98 0 3.868602174184577 0
99 0 3.494018517035026 0
100 0 3.142253860905069 0
101 0 2.811915040715398 0
102 0 2.501785774664801 0
103 0 2.210519881067661 0
104 0 1.937082888133551 0
105 0 1.680302183593199 0
106 0 1.439076921161299 0
107 0 1.212619338274426 0
108 0.9749279121818258 0.2225209339563045 0
109 0.9009688679024271 0.4338837391175415 0
110 0.781831482468043 0.6234898018587169 0
111 0.6234898018587486 0.7818314824680178 0
112 0.4338837391175694 0.9009688679024137 0
113 0.2225209339563205 0.9749279121818222 0
114 5.007962594922169 4.912597906012644 0
115 2.397355852676436 2.368715802791538 0
116 10.09334288267166 5.075601781073443 0
117 14.99899168145 4.966554623311588 0
118 7.511538884918455 3.121543470786577 0
119 4.877905748882907 2.491368113503077 0
120 1.754048672386686 1.120172965378131 0
121 12.62263105458204 3.085731238193871 0
122 2.433264999580715 4.901201082403128 0
123 7.480153027061011 6.807027204994325 0
124 9.986256621956883 2.516591567492288 0
125 12.55237999237124 6.858245342812396 0
126 3.680432088773607 7.377731855004148 0
127 17.12233133076802 2.947344991555243 0
128 3.663800566628169 1.543524694122834 0
129 6.507350962322182 1.694712237713241 0
130 17.11513412389082 6.983676532890929 0
131 3.563151188832314 3.619154941873934 0
132 1.217925996426708 2.167786227476503 0
133 14.78903136414103 2.385745815895535 0
134 9.955817612702553 7.529466491593846 0
135 1.538061739564996 3.686510779762361 0
136 8.504458491048732 1.684086199359949 0
137 6.878119835740143 5.001189554761054 0
138 1.883187571024652 6.682460143632685 0
139 5.296626284454767 1.2426369827713 0
140 2.835779049912023 0.9865932168070806 0
141 6.023311050354979 3.66601807397846 0
142 14.75475081988564 7.641308667951831 0
143 11.48704956147237 1.688665888532147 0
144 5.695384503655421 7.941675288341334 0
145 0.7109111413024063 1.555530306519321 0
146 12.09831711379663 5.011614212320107 0
147 17.79667951780735 4.989823406998762 0
148 8.92649643555314 3.83925275188961 0
149 13.28857467823494 1.604617707290655 0
150 3.754439047235534 5.78804207713439 0
151 11.06389505178406 3.729286919523861 0
152 8.514545393305983 5.489484282747119 0
153 5.982818735011792 6.293569986487606 0
154 4.431345103495779 0.9388384968566537 0
155 1.30588380964222 4.887528678790146 0
156 7.447813341333987 1.174201461108305 0
157 3.455562891870978 2.568492927309732 0
158 2.307134349743309 8.355935471159018 0
159 9.655189234406002 1.289571284953506 0
160 1.495190411749647 0.5937521191410265 0
161 4.805942314000035 3.643695219252506 0
162 0.8716860634218426 3.046677305572048 0
163 13.53354460894738 4.490762176869553 0
164 2.542497848126536 3.433117765536542 0
165 16.18548104277925 1.568732961822574 0
166 11.01158391589201 6.263379494824195 0
167 3.533105582746398 0.7988288738738321 0
168 8.379434203135744 8.322607732865418 0
169 11.44135339555211 8.260720078701013 0
170 18.34138439991368 1.615938982389924 0
171 2.259932874329862 0.6600091225569713 0
172 1.15065341783452 1.162011587235142 0
173 6.132799388069874 0.9246757523800921 0
174 14.02196546965126 6.201902202624233 0
175 2.368650103799031 1.63141153086959 0
176 5.931209039001189 2.618685650193667 0
177 13.35370818828412 8.318655947771365 0
178 15.66983780673395 3.546610552724846 0
179 18.3853346702958 8.267234167598779 0
180 3.854612492590602 4.717332476756886 0
181 1.665354102572328 2.841922718672587 0
182 16.43450276739753 5.663996277404543 0
183 18.42964638439934 3.607234338053023 0
184 7.339915339844136 2.137872033214452 0
185 7.932312799196516 4.356269916480812 0
186 4.475407261547625 1.746684675267996 0
187 4.391127153668097 8.587333789026697 0
188 4.680726673348151 6.549613500771853 0
189 16.22074327544142 8.420934477235734 0
190 8.528920034195586 2.753919367883789 0
191 1.026274184294549 5.939281555758621 0
192 6.985613147757057 8.610496961434382 0
193 1.709350767367293 1.76620176505115 0
194 10.65570874987678 1.000946249531347 0
195 18.42797787689728 6.329506815098821 0
196 9.582755086945399 6.207407686828941 0
197 0.5928473074940196 2.120520036226124 0
198 3.021578546741279 1.922586092018721 0
199 13.81219611742289 3.248444592860447 0
200 1.199392686474947 7.621247661667345 0
201 14.40032681565394 1.151814711162995 0
202 2.630181589941351 5.904805745697401 0
203 0.809826609594223 4.147567066383051 0
204 4.195934548864051 2.990787502206646 0
205 8.255662237466018 0.8697691649528234 0
206 12.41693932410709 1.061214728459911 0
207 4.992471681723579 0.6695959927995419 0
208 5.980495534810782 4.637082243477947 0
209 6.910358870034764 3.937630576608336 0
210 10.94422981037745 2.671292660863606 0
211 15.3304635369588 6.40702677931346 0
212 8.717427169144472 7.112882640041438 0
213 3.026108003283241 0.5296157562013337 0
214 6.821666880058438 0.7334122708317742 0
215 3.004185820522371 4.190784151149153 0
216 10.01774601683557 3.566654079517993 0
217 16.83532638269796 4.150899117266105 0
218 5.443765082863352 2.022594456708856 0
219 6.759357628434435 2.742611091215575 0
220 9.573499860661187 8.77416759738086 0
221 1.174677274401956 1.644119788958557 0
222 12.95607303507564 5.738447169613138 0
223 2.175528324186605 4.136033615430904 0
224 1.851418757856409 5.530224140492903 0
225 0.3648908554010863 1.344228644160191 0
226 1.878841188821349 0.4026991255196932 0
227 1.153982746017079 8.877917164842614 0
228 12.40694035351037 2.128974441785997 0
229 17.25939328472422 1.220014675230964 0
230 2.585190391917898 7.341904439767895 0
231 4.022629479506637 0.5343901590753457 0
232 14.65583158850461 3.92560652850682 0
233 7.464861789712772 5.797682516216526 0
234 9.172585790668114 2.012301750554998 0
235 9.043480059295632 0.767378063561694 0
236 0.757042401669735 1.155153246949474 0
237 4.07550099044459 2.317159416140791 0
238 5.346789352555677 3.113167365391334 0
239 3.27810496376301 8.888513881170301 0
240 9.057648304018176 4.717732619571509 0
241 5.617699574480637 0.5975284053816872 0
242 11.99059956385119 4.028066852716886 0
243 11.52200058038785 0.7978162110847732 0
244 6.487166516379219 7.258243886977089 0
245 14.45733011258487 8.799482166866895 0
246 2.266003475862285 1.133773783814273 0
247 1.143812891788116 0.7324057278616296 0
248 11.03893280809766 4.74695711082247 0
249 0.4821039468316117 2.688456107336359 0
250 1.817878708315154 2.35163922483159 0
251 0.6108923838187483 3.606563417012022 0
252 10.54075972373526 1.880848654262097 0
253 0.9036563216374174 6.9117604477049 0
254 2.663326196344395 0.4475142301569195 0
255 2.876480228428169 2.86312767876452 0
256 13.59279394797877 7.231546150551818 0
257 4.682839192454789 7.552797860698607 0
258 15.41397249838535 0.93776957627449 0
259 15.83766414531621 2.502717466428578 0
260 5.850304533225363 1.498280602288627 0
261 1.294587444312673 0.3311113487586448 0
262 17.19623976752847 8.819068351343628 0
263 3.155187784170812 1.444203535141392 0
264 3.281589483750622 5.165602281064309 0
265 5.082258090654933 5.860671339951463 0
266 18.87183584280773 4.669755999439211 0
267 11.51519038652786 7.202235970071083 0
268 0.3939997744606984 1.820707831276096 0
269 18.97150712677815 2.62233882340329 0
270 5.254084191521952 4.302043727139498 0
271 8.321673508348937 3.540305075735553 0
272 5.765001636970206 9.065461043122486 0
273 9.345525642199863 3.001450157635351 0
274 3.226868739304059 6.56591518769807 0
275 15.97743930438387 7.369167646104541 0
276 11.86018597509644 6.021815094871647 0
277 0.6819312251268765 5.42097751217708 0
278 4.145269937546775 4.000738241728593 0
279 13.61088557129376 0.9400525273657229 0
280 17.5475717625066 6.110384546024811 0
281 12.29184663398038 8.932245249364218 0
282 6.245427689905757 5.430863610926786 0
283 14.0666895991439 5.27058240800541 0
284 10.02733344116627 0.7589913441591923 0
285 10.70290340010117 8.921439267286871 0
286 18.87515607400896 7.427432973126248 0
287 4.586194487011181 0.5331598137763252 0
288 16.0305757675129 4.783859783511 0
289 13.14903583065177 2.573669435016579 0
290 3.915079657872116 1.157465339205922 0
291 11.69131676504661 3.085368709868415 0
292 1.609900387201131 4.323472251361324 0
293 7.688932445753794 0.6812470899927932 0
294 4.421900044926005 5.557805267340367 0
295 8.100767046991113 2.33996064768766 0
296 1.226183461187655 2.663360895916045 0
297 6.822678474912975 6.333049705156769 0
298 7.682129143939241 7.826073040141725 0
299 12.36505934934588 7.869880752515899 0
300 2.282847796786577 3.001620646961817 0
301 4.737967988854543 1.325440691272766 0
302 5.470402156949566 7.062749136436482 0
303 6.875171075612214 1.288016607129481 0
304 8.246570768273797 6.480795958865134 0
305 1.491183984442352 1.353250156960979 0
306 19.06187612204877 0.9373324135491506 0
307 7.796596984754336 1.609070527895858 0
308 7.831890020881351 5.129176103814007 0
309 0.6108069244974828 4.684377970306396 0
310 1.584389422384893 0.3262220718053579 0
311 1.461277280139899 0.9575722377023148 0
312 3.629885923270245 2.085025542189527 0
313 14.06809687061587 2.194659077123829 0
314 18.00587644037094 2.597052509769666 0
315 10.31181221822674 4.192411907553165 0
316 16.93143831619197 2.012758898241665 0
317 3.502938234120955 0.3317969423741132 0
318 6.596460693828408 3.351572666955681 0
319 3.115864473243006 8.020959843519563 0
320 0.9371737982981332 1.911587118621408 0
321 19.05786820136877 9.052019296519056 0
322 12.75297134765281 3.849441282577597 0
323 10.33022416067038 5.819957813583496 0
324 9.023499551819427 1.387731699370033 0
325 2.195099321980503 0.3226954780497098 0
326 7.823175980601867 9.04596533690578 0
327 1.803140606783833 0.7871043853639339 0
328 6.364168462680876 0.4930408301296386 0
329 15.33528553543096 8.964744355630494 0
330 5.004638732819933 1.778973468598446 0
331 19.06558412792676 5.60639620948007 0
332 1.856579644742995 4.857027608716633 0
333 2.021332472411792 3.420814719263004 0
334 1.980133100818397 1.476174274404892 0
335 0.4953659219100777 3.129924901427348 0
336 12.83100888234182 4.952760784627447 0
337 3.338075405421318 3.101742666096564 0
338 2.745985033396257 1.444757418649902 0
339 11.26786788838492 5.491354537378486 0
340 0.9110416155189095 2.483785836807145 0
341 9.581975001079687 4.216054729724211 0
342 10.83944645620392 7.699762736985361 0
343 0.8888759012947807 0.8873255550580994 0
344 10.25813855830049 6.726194914861924 0
345 6.043310082049191 2.130004460339014 0
346 15.42374666778611 1.878925210626654 0
347 4.711740183732724 3.054111174009608 0
348 11.75686476675772 2.352826164054597 0
349 1.354206486515243 3.261814342936631 0
350 17.57539434539263 3.697186386241815 0
351 3.205342783006718 1.006760868112468 0
352 1.984740051265023 9.146339143027411 0
353 2.195307545562661 2.0218442956308 0
354 17.93839693565494 7.453810911922046 0
355 14.94087486312684 3.200267211707305 0
356 16.1308007186715 0.7701543327711287 0
357 18.15786461341555 0.7830342556977323 0
358 8.774354472430646 9.158803130859138 0
359 9.945506931608614 1.89098760822262 0
360 9.231373112224615 5.565568323444102 0
361 4.703954106640351 4.42843864047413 0
362 4.018178944407905 6.44938899617003 0
363 9.115409240335699 7.794748843149131 0
364 3.61904445785928 4.170111500274773 0
365 2.852936630207571 2.385702899023182 0
366 12.95782026079596 0.6882950352042752 0
367 1.88684944176623 7.400038163607063 0
368 14.76176159871501 5.838706068308463 0
369 6.840402377445497 2.24025547232854 0
370 2.602790976169654 2.004029568062214 0
371 2.593361564303943 6.641657533822638 0
372 3.049993523242518 3.638100561585893 0
373 5.526524123546194 5.312017847758521 0
374 10.41124187522085 2.990916094715868 0
375 17.06199067723519 7.952196165541682 0
376 4.278514108875012 1.313724593435273 0
377 6.350942030518605 4.187291571141007 0
378 4.03754310810287 1.876458722205301 0
379 0.9605279774457973 1.391080313512434 0
380 7.201186907524777 0.4518172566079544 0
381 8.591880117359548 4.342523500186228 0
382 15.57879973181522 5.628642694884254 0
383 4.910301120642257 9.216874574364059 0
384 5.691316497457494 1.062821692394981 0
385 16.38899064372603 6.593658977970247 0
386 16.98301183370243 4.964414147914238 0
387 5.383675060964499 3.699908998837193 0
388 5.397788254972278 2.541365616003116 0
389 18.03733672675715 9.1529177765158 0
390 7.542817443720185 3.795624743540461 0
391 14.61112908063559 6.799542981844512 0
392 9.537296090016056 0.4863237988367463 0
393 11.50480252651855 9.049981368790469 0
394 13.42557956049037 9.19426998574184 0
395 11.02546184884164 0.5441323106095854 0
396 2.565744031434105 0.7682312777231919 0
397 4.303043252675511 3.515346756397998 0
398 0.3209375621219222 2.376231213436145 0
399 16.49064924998724 3.429888353121154 0
400 0.7149833653624904 8.236705018890174 0
401 13.25709401474687 6.522279978140618 0
402 1.129443845371977 0.5022322955754197 0
403 7.317516772219721 1.651939569138347 0
404 5.946132198451805 0.3656110762595774 0
405 8.658097789165346 2.188502139111207 0
406 1.069662460229374 3.718504530087555 0
407 14.09614510234674 8.092910446687927 0
408 6.384746150594424 1.290384680566042 0
409 0.580085542601802 6.372781168417726 0
410 1.657162318256346 6.05818527961862 0
411 8.634622758093363 0.4816312499442792 0
412 5.285883772436474 0.3837523435130804 0
413 6.43356520242579 7.97081953110563 0
414 19.19996936723729 1.898836050942849 0
415 7.30658525422437 4.523302805881151 0
416 3.939449819890282 8.029005008688499 0
417 6.080649330543734 3.128790198860243 0
418 6.557850415821391 9.271332799479609 0
419 2.067552803374409 0.9164731995260816 0
420 1.286582075960116 5.439185795929986 0
421 15.33962967423466 4.24045901174967 0
422 12.02837103751114 0.554631218009116 0
423 16.54670575363337 9.284470256977691 0
424 10.24050494253216 8.329610252222473 0
425 6.861116023665893 5.650459979004267 0
426 0.2398001549933539 1.575437014264224 0
427 5.178111854864567 8.443000257282204 0
428 4.484971662575533 2.20344487192909 0
429 3.551072112813401 1.150572702397588 0
430 8.830899938161453 6.084329468581308 0
431 10.24424898310774 1.374680609280738 0
432 19.24475435550931 3.4237784591181 0
433 15.39517208297592 8.078299664747016 0
434 4.411713924451607 4.967548216286367 0
435 14.84702337280561 0.6318655500394698 0
436 19.25893435351112 8.115255519219879 0
437 9.434215540289536 6.974866663254005 0
438 7.996767151008578 2.867673364961158 0
439 0.4853072758040951 1.131394471769499 0
440 0.3905239920424096 3.984873381541291 0
441 3.998219399227981 9.240106398184327 0
442 1.565959723906462 2.09895465112176 0
443 14.27945979068335 4.512449255835259 0
444 7.246406534489891 2.647864837854454 0
445 2.359256564928128 5.429472192367209 0
446 2.903294904785018 0.2669446228568317 0
447 3.892684612705764 5.228423073174309 0
448 18.13552237661213 4.314641237656595 0
449 1.607704405802466 8.252830894710375 0
450 19.23798139643614 6.609667851807949 0
451 4.265066574201686 7.083434831776476 0
452 6.386059868066033 2.441948571684897 0
453 3.205443952181607 0.2835883160387065 0
454 7.898244947338123 1.168230250148692 0
455 0.5805232189483163 7.45880287730731 0
456 3.317453815789503 4.6395320652938 0
457 13.96999048383569 3.879452902575318 0
458 12.096387073945 1.639868811311457 0
459 3.807887111616989 0.2875892935641989 0
460 18.18761597510311 5.619695249572497 0
461 3.769922760115573 2.872258424746359 0
462 13.20014352793468 3.261819176630554 0
463 0.2569848895546396 2.06540812109902 0
464 2.594058759668089 3.915397562563107 0
465 5.321014387187013 0.8618287428616591 0
466 8.000665435707472 7.249164119184414 0
467 8.432239668283781 4.897417591591529 0
468 4.76643539406605 0.9258819140837464 0
469 10.91260871092666 1.525851744706781 0
470 8.545059259618558 1.236745058116087 0
471 9.06476790709749 2.57338270436248 0
472 16.46712347010536 2.607253416964923 0
473 11.37938519715728 4.197493445874221 0
474 3.165263636197585 5.719690365092898 0
475 12.69763239665517 1.60289769830471 0
476 14.15992488545195 0.5572618316350155 0
477 4.303756378176445 0.3156878403978085 0
478 4.893034740182656 0.3223021734932546 0
479 10.66489489792724 5.261322053414323 0
480 8.081621161325607 0.3861522643417927 0
481 5.778066373830661 4.188961836658162 0
482 5.34988835447886 6.475743118865351 0
483 0.4671337042718446 5.861375681748926 0
484 2.751644352645936 9.368040811094785 0
485 4.443447925743165 2.635172753652922 0
486 14.33655950247997 2.872606215284446 0
487 13.92182743354176 1.586933148011118 0
488 10.48686958190758 0.4444476249058804 0
489 2.097576790505384 2.63934373869663 0
490 1.968898544161057 0.1974531400111924 0
491 16.8524480029236 0.6223879272617461 0
492 8.839316993001884 3.233975840579979 0
493 3.349381995853752 1.786915484609644 0
494 7.118766541713184 3.454168938846032 0
495 2.46814669592246 0.2372175942267031 0
496 1.431250859335783 7.026751935947839 0
497 11.07920793594976 2.144155364195228 0
498 1.473569143739221 2.430383452786177 0
499 2.550363945224304 4.410995629228982 0
500 2.184605497410779 6.214075590365331 0
501 6.753442541021127 0.3451667904337334 0
502 13.39156050578468 5.276033345127127 0
503 10.90136369707411 6.999628140693272 0
504 10.48199137337931 2.396642070619719 0
505 14.67943901440848 1.736843697024309 0
506 17.7136269204921 1.96062500454098 0
507 12.37462172795116 4.491666826286849 0
508 5.466511016071567 1.584342599165931 0
509 15.30845880742683 7.160437500015314 0
510 11.95841497128013 6.69178731121723 0
511 1.247817186601854 6.477375061593396 0
512 16.12537372997434 4.057899280109464 0
513 17.84458073732974 6.727585721590773 0
514 4.400170975372152 6.073335413135924 0
515 7.128260213417668 7.3949464852506 0
516 1.107131286537469 4.496727721949305 0
517 12.9371152611909 7.4951715351999 0
518 0.3794655156876679 4.372327590859046 0
519 3.25020498994745 2.229037595554914 0
520 0.2083196444426029 1.178653057981866 0
521 9.82669977029566 3.012050426619349 0
522 3.873193908654188 3.295844967954651 0
523 6.426757539216919 4.751192426689677 0
524 5.513793956777729 4.753561504053171 0
525 0.9327637843900662 3.341104761532439 0
526 2.844741830613164 0.7207620428912289 0
527 2.900797580621521 3.244335426829224 0
528 0.6083557159738928 1.352149571447076 0
529 1.918369230248795 3.839720353363282 0
530 3.829482247517574 0.8211603022003615 0
531 10.15256058364344 9.282872897703285 0
532 6.8881038656342 1.805234267448056 0
533 3.133737097508766 7.109561224189774 0
534 5.107882341215936 2.171158637316891 0
535 6.503186502131954 0.9284337664611069 0
536 9.444240472934231 3.521376076036575 0
537 1.993946809874018 0.6288504688855076 0
538 12.35265304217937 5.543743264722879 0
539 0.661224210656091 1.791740050166195 0
540 1.337539460374859 1.89027774488093 0
541 19.38306185076069 4.214057689398078 0
542 17.49783775542257 0.6054838834543472 0
543 0.9750454438976806 0.6337950845448279 0
544 0.6572323077133801 9.362587987894351 0
545 12.22994086782072 2.70677601652846 0
546 2.55311495019708 1.19120751669811 0
547 9.118069761615638 0.3552500627980174 0
548 0.910905378242395 2.221606609682031 0
549 6.317477730833231 8.65187010499621 0
550 0.6435147153129885 0.9787532209466834 0
551 11.11230775294582 3.187220916902507 0
552 6.076485088557904 6.844514043467153 0
553 12.51345167803386 6.24020910286499 0
554 17.45515036541639 4.441488696133972 0
555 10.58071258302903 3.578811843395302 0
556 3.325291958177191 0.6030618701998463 0
557 16.6671377729059 1.219646994635925 0
558 7.207669237779036 9.387898435780983 0
559 0.2695363813218219 2.885308518829687 0
560 2.018278237915422 1.775310730234781 0
561 5.705037932601067 3.315818453010873 0
562 9.06521709778157 8.462588206692505 0
563 5.73023956522348 5.853106184943805 0
564 1.16596752510916 0.1836468964771962 0
565 1.778893636320862 0.1859456751736879 0
566 1.697355924935295 1.479551352995653 0
567 9.792128361642151 5.537622430836263 0
568 7.301432567625787 5.272907512522435 0
569 2.144304999216922 4.550006526084069 0
570 5.635765514188232 0.2700243659837249 0
571 7.193942675130139 0.8617172949039874 0
572 8.447239947767002 7.673357570448849 0
573 1.234330894262303 4.081257136515102 0
574 7.590245559365972 8.397771040793945 0
575 1.459191584263896 1.60567158216847 0
576 19.44100455694143 4.973259096209684 0
577 14.79719877520709 9.391982337924839 0
578 1.710808619131523 0.5753555906660451 0
579 4.300252226224742 0.6453286168097049 0
580 2.34410390640815 0.9141459065407638 0
581 1.413144208366186 0.1672938887871007 0
582 13.52932149524197 5.841313739218537 0
583 0.2722051777329528 3.668255381763572 0
584 12.94637536362734 2.074848000093326 0
585 2.782612773499188 1.716466344037415 0
586 1.247618850835972 1.374701297153058 0
587 11.56031654444998 3.644505696215096 0
588 0.4851639179589322 1.557217484074991 0
589 13.01640137414494 1.19041746139416 0
590 12.73062916740399 9.358624075593768 0
591 17.66952462855075 8.310934470158809 0
592 11.8343768694781 1.153571279916922 0
593 1.361613549684 0.76380796963896 0
594 14.13293168513757 9.368451741603778 0
595 6.353674434305796 5.958398281853327 0
596 12.52234015820845 0.447338874124846 0
597 12.13062130529254 3.428246748364224 0
598 7.681620525791983 2.528711283733164 0
599 14.16084091659356 7.372225123660934 0
600 2.787609963947679 5.259709348392665 0
601 8.072097554536795 5.869767726351451 0
602 2.683614330651685 8.756047568561076 0
603 1.88309401614732 2.038034548577952 0
604 1.712266207726608 3.239343282211442 0
605 11.52287798094606 0.381488984381775 0
606 2.41349801119065 0.4767496458244997 0
607 3.690179028097806 0.5601877727695266 0
608 2.527145758519456 2.720711990207765 0
609 2.045844431401898 1.2110069072768 0
610 9.467465006635614 9.406506139017857 0
611 4.928226109909672 7.071524020898504 0
612 0.9074522583707368 1.65403708866447 0
613 3.765424931011896 8.568804217317606 0
614 11.18606365962721 1.106357232731566 0
615 4.035136611100028 1.525579962711915 0
616 2.261084089101841 3.723867873758356 0
617 0.4103411400257878 6.958722847730854 0
618 17.92714073292049 3.136500955002152 0
619 8.845110894736901 1.8160876941611 0
620 10.90527113055719 8.401030769809568 0
621 2.232199261495751 7.022280125815611 0
622 12.16133136938495 7.322387179272956 0
623 0.3792407995322307 5.085568043850699 0
624 5.067818746110851 2.86644243034041 0
625 15.98498599573548 3.028032027303686 0
626 3.800192556542259 2.516714041499807 0
627 14.33910109405048 3.438036775647482 0
628 15.90414821014999 6.184163132444747 0
629 2.29208094805666 7.822239832526156 0
630 5.715123806806627 2.266863453209336 0
631 7.058625744162825 3.047961238922458 0
632 7.651061483775365 6.300233509530456 0
633 9.4847009140328 1.733807654029521 0
634 4.231249309649892 4.417663407205982 0
635 15.48884455709785 0.4561740279493552 0
636 13.38217099312227 3.839160136678892 0
637 5.935494351950658 7.435507352067749 0
638 9.080441622579016 4.274586294184751 0
639 0.8097718994515417 2.763227449493627 0
640 10.8511495543919 4.202729812079221 0
641 0.2275610131385746 2.639976062492319 0
642 9.520827438736077 5.025116385159361 0
643 9.620039705370782 8.167538143219069 0
644 14.78945820391703 8.295572041308853 0
645 15.34874480849921 2.716198716521101 0
646 2.686100367921759 0.1950984166423234 0
647 4.896181223273244 5.381414247969763 0
648 6.802953921385682 4.4426673797976 0
649 0.6439538699739261 2.434063649965856 0
650 13.6939133707671 2.676328009279379 0
651 9.433178956907566 0.9287934683552819 0
652 7.093967346423028 8.0029072170246 0
653 16.57866663989267 7.483002875210646 0
654 2.87717598923498 4.734925503107366 0
655 17.81360923302438 1.284593549095042 0
656 6.852348846046374 6.897667941568328 0
657 3.394631454208337 9.487277965552124 0
658 16.91179314047404 6.137420694280639 0
659 13.85124813075142 8.727566964056885 0
660 5.237889110918669 7.609751609023832 0
661 5.678360953597467 2.938614767796427 0
662 2.60994858587308 3.072548327033846 0
663 9.532852067572222 2.373175632519477 0
664 11.63293825136298 4.749060177577023 0
665 5.031259362691078 3.311059682779991 0
666 6.3646234666073 2.847595869063775 0
667 15.90355415929074 9.379165715035505 0
668 15.15303143853328 3.721004757368777 0
669 4.933367682352182 4.042436353745641 0
670 3.129679081656221 2.630752383673412 0
671 10.50290860282252 4.706724352799386 0
672 12.04121868435954 8.378758272383017 0
673 7.557640739060642 0.3079564615565444 0
674 18.42467588041728 5.051372114113097 0
675 1.32789068684414 0.5235767196294634 0
676 5.04208960473151 1.06926984075371 0
677 6.438471604471044 3.775534992971738 0
678 13.94727773191883 6.820318270651169 0
679 0.9721029451253117 1.10426194328752 0
680 2.915843724408226 1.234407457725271 0
681 1.336507357797839 9.44068509967491 0
682 8.219890046315991 3.943899781330182 0
683 14.80425897119769 4.441155199443096 0
684 0.1754684054390178 1.813365243565275 0
685 1.613560691948232 5.16253936632944 0
686 8.680919660570829 0.9079914805009144 0
687 12.71243882742814 8.459271257000275 0
688 5.774931563588323 1.856153593802024 0
689 2.239489381410372 1.364858442606236 0
690 0.1696282413226412 1.360719813221534 0
691 15.01292841098773 1.265324138039196 0
692 17.29386171330017 9.476456662717389 0
693 8.911182907301161 5.174847701961557 0
694 1.209730003871828 0.9526908090903226 0
695 4.123197981513071 0.8975563250106797 0
696 4.049860809012126 0.2232163145895741 0
697 5.9234176123547 0.6883454706555048 0
698 0.5083156826872546 8.824631638650235 0
699 6.054927241932014 1.271702730069891 0
700 12.05982738695372 9.4566333208667 0
701 17.35935332150716 5.503944949747561 0
702 12.98110168535107 4.365375929248995 0
703 3.651815437204605 6.81516649997422 0
704 5.071352442638596 1.436387932200106 0
705 3.931356166820371 3.716062435255237 0
706 16.15530427262856 2.12055570637854 0
707 7.746064314065005 2.038556117617021 0
708 1.377641875776179 1.156131392125065 0
709 0.2734948748411258 3.392002372256988 0
710 6.136435484108324 1.721212342651101 0
711 3.043751092194452 6.176458459939163 0
712 1.095656786667001 0.3386448867703246 0
713 18.46221794759753 2.272945323786143 0
714 13.49039671284504 2.115883904925247 0
715 3.072196016722357 0.7768333303685968 0
716 8.97771780043789 6.610236215506077 0
717 11.7381382113757 7.77013551256344 0
718 0.8843288139102876 5.011709987417944 0
719 3.329239281346051 3.893263256930243 0
720 8.222572020915143 9.493748094022349 0
721 13.42531596633521 0.4153767752887063 0
722 4.794986315344811 2.065762926124517 0
723 15.80697150013126 6.745181425339739 0
724 4.630872369932 0.2328478948989754 0
725 19.50892048009133 2.679668482500814 0
726 1.167487103796158 2.976708344622331 0
727 1.587850389474179 0.7918792319303469 0
728 11.82506614789089 5.424940725133279 0
729 12.68992219975698 2.509666179652015 0
730 4.085291549022067 2.655402851736639 0
731 17.49199753269983 2.51128576850865 0
732 17.03098501398215 3.516435035698749 0
733 8.305430939426339 3.150013959986693 0
734 10.96669536449349 9.44781884904506 0
735 18.52717597968297 2.983840224407071 0
736 4.655363409564112 8.057132650134308 0
737 8.205120149551927 1.405353110392176 0
738 10.83597808711919 5.759601409121851 0
739 15.67125049446159 1.338452609787703 0
740 19.5085854115816 0.4974494336916987 0
741 18.46659303671171 6.96302369119591 0
742 10.4554827532932 7.263701290997696 0
743 11.37392731551301 2.724227504403405 0
744 2.157833104809413 5.81024685231352 0
745 10.04110337750771 0.319420192038905 0
746 7.896817074177872 3.422061771960232 0
747 9.988110975208194 4.58500398285808 0
748 3.532579076077729 6.243686246671296 0
749 2.045111009984484 5.192981801756658 0
750 11.41635467780021 6.668905845113221 0
751 8.145525177448985 1.897736382286134 0
752 4.536101364521702 3.994967055606685 0
753 13.58049746012773 7.772453559884756 0
754 2.100741483066504 2.297840708980369 0
755 19.50517136077782 7.331682152942177 0
756 6.473512508592695 2.053793365205366 0
757 18.80977048220399 4.057680395665775 0
758 5.960432075556554 5.050547114836564 0
759 19.50393669914798 9.502705650844764 0
760 1.146304656620057 2.413905194065565 0
761 4.220773886184357 7.609960453157521 0
762 5.843991539504225 8.426898452082629 0
763 3.594470745745847 4.95998714677941 0
764 1.966153916519148 3.03953727667942 0
$ENDNOD
$ELM
1504
1 1 8 1 2 2 7
2 1 8 1 2 7 8
3 1 8 1 2 8 9
4 1 8 1 2 9 10
5 1 8 1 2 10 11
6 1 8 1 2 11 12
7 1 8 1 2 12 13
8 1 8 1 2 13 14
9 1 8 1 2 14 15
10 1 8 1 2 15 16
11 1 8 1 2 16 17
12 1 8 1 2 17 18
13 1 8 1 2 18 19
14 1 8 1 2 19 20
15 1 8 1 2 20 21
16 1 8 1 2 21 22
17 1 8 1 2 22 23
18 1 8 1 2 23 24
19 1 8 1 2 24 25
20 1 8 1 2 25 26
21 1 8 1 2 26 27
22 1 8 1 2 27 28
23 1 8 1 2 28 29
24 1 8 1 2 29 30
25 1 8 1 2 30 31
26 1 8 1 2 31 32
27 1 8 1 2 32 33
28 1 8 1 2 33 34
29 1 8 1 2 34 35
30 1 8 1 2 35 36
31 1 8 1 2 36 37
32 1 8 1 2 37 38
33 1 8 1 2 38 39
34 1 8 1 2 39 40
35 1 8 1 2 40 41
36 1 8 1 2 41 42
37 1 8 1 2 42 43
38 1 8 1 2 43 44
39 1 8 1 2 44 45
40 1 8 1 2 45 46
41 1 8 1 2 46 47
42 1 8 1 2 47 48
43 1 8 1 2 48 49
44 1 8 1 2 49 50
45 1 8 1 2 50 4
46 1 9 4 2 6 88
47 1 9 4 2 88 89
48 1 9 4 2 89 90
49 1 9 4 2 90 91
50 1 9 4 2 91 92
51 1 9 4 2 92 93
52 1 9 4 2 93 94
53 1 9 4 2 94 95
54 1 9 4 2 95 96
55 1 9 4 2 96 97
56 1 9 4 2 97 98
57 1 9 4 2 98 99
58 1 9 4 2 99 100
59 1 9 4 2 100 101
60 1 9 4 2 101 102
61 1 9 4 2 102 103
62 1 9 4 2 103 104
63 1 9 4 2 104 105
64 1 9 4 2 105 106
65 1 9 4 2 106 107
66 1 9 4 2 107 3
67 1 10 3 2 5 63
68 1 10 3 2 63 64
69 1 10 3 2 64 65
70 1 10 3 2 65 66
71 1 10 3 2 66 67
72 1 10 3 2 67 68
73 1 10 3 2 68 69
74 1 10 3 2 69 70
75 1 10 3 2 70 71
76 1 10 3 2 71 72
77 1 10 3 2 72 73
78 1 10 3 2 73 74
79 1 10 3 2 74 75
80 1 10 3 2 75 76
81 1 10 3 2 76 77
82 1 10 3 2 77 78
83 1 10 3 2 78 79
84 1 10 3 2 79 80
85 1 10 3 2 80 81
86 1 10 3 2 81 82
87 1 10 3 2 82 83
88 1 10 3 2 83 84
89 1 10 3 2 84 85
90 1 10 3 2 85 86
91 1 10 3 2 86 87
92 1 10 3 2 87 6
93 2 11 7 3 306 357 49
94 2 11 7 3 189 375 262
95 2 11 7 3 166 339 276
96 2 11 7 3 217 386 288
97 2 11 7 3 439 520 113
98 2 11 7 3 288 382 117
99 2 11 7 3 189 433 275
100 2 11 7 3 379 528 236
101 2 11 7 3 292 332 155
102 2 11 7 3 186 428 378
103 2 11 7 3 301 330 186
104 2 11 7 3 378 428 237
105 2 11 7 3 310 675 261
106 2 11 7 3 81 272 80
107 2 11 7 3 94 623 277
108 2 11 7 3 354 375 130
109 2 11 7 3 288 386 182
110 2 11 7 3 181 498 250
111 2 11 7 3 143 458 348
112 2 11 7 3 282 523 137
113 2 11 7 3 325 537 226
114 2 11 7 3 297 552 153
115 2 11 7 3 323 344 196
116 2 11 7 3 213 526 254
117 2 11 7 3 50 306 49
118 2 11 7 3 283 368 174
119 2 11 7 3 166 344 323
120 2 11 7 3 52 306 51
121 2 11 7 3 117 368 283
122 2 11 7 3 145 528 379
123 2 11 7 3 262 423 189
124 2 11 7 3 207 468 287
125 2 11 7 3 182 382 288
126 2 11 7 3 160 675 310
127 2 11 7 3 284 431 159
128 2 11 7 3 287 468 154
129 2 11 7 3 348 458 228
130 2 11 7 3 367 629 449
131 2 11 7 3 50 740 306
132 2 11 7 3 250 489 181
133 2 11 7 3 161 397 347
134 2 11 7 3 188 514 265
135 2 11 7 3 254 446 213
136 2 11 7 3 230 533 319
137 2 11 7 3 315 341 216
138 2 11 7 3 263 429 128
139 2 11 7 3 367 449 200
140 2 11 7 3 112 439 113
141 2 11 7 3 297 656 552
142 2 11 7 3 359 504 124
143 2 11 7 3 252 504 359
144 2 11 7 3 480 673 29
145 2 11 7 3 143 614 592
146 2 11 7 3 293 454 156
147 2 11 7 3 431 469 252
148 2 11 7 3 487 505 313
149 2 11 7 3 301 376 154
150 2 11 7 3 368 391 174
151 2 11 7 3 179 354 286
152 2 11 7 3 319 533 126
153 2 11 7 3 114 361 270
154 2 11 7 3 277 483 94
155 2 11 7 3 380 501 27
156 2 11 7 3 135 529 292
157 2 11 7 3 178 645 625
158 2 11 7 3 135 406 349
159 2 11 7 3 251 406 203
160 2 11 7 3 168 358 326
161 2 11 7 3 308 415 185
162 2 11 7 3 283 502 163
163 2 11 7 3 283 443 117
164 2 11 7 3 355 645 178
165 2 11 7 3 198 585 263
166 2 11 7 3 175 546 338
167 2 11 7 3 175 689 546
168 2 11 7 3 253 496 200
169 2 11 7 3 305 708 120
170 2 11 7 3 200 455 253
171 2 11 7 3 347 397 204
172 2 11 7 3 164 333 300
173 2 11 7 3 194 431 284
174 2 11 7 3 590 687 394
175 2 11 7 3 64 321 63
176 2 11 7 3 52 414 306
177 2 11 7 3 64 389 321
178 2 11 7 3 264 447 150
179 2 11 7 3 394 687 177
180 2 11 7 3 205 454 293
181 2 11 7 3 260 508 384
182 2 11 7 3 308 568 415
183 2 11 7 3 194 469 431
184 2 11 7 3 62 321 61
185 2 11 7 3 28 380 27
186 2 11 7 3 185 467 308
187 2 11 7 3 120 708 311
188 2 11 7 3 203 440 251
189 2 11 7 3 211 391 368
190 2 11 7 3 384 508 139
191 2 11 7 3 304 466 123
192 2 11 7 3 171 537 325
193 2 11 7 3 249 639 335
194 2 11 7 3 433 509 275
195 2 11 7 3 81 383 272
196 2 11 7 3 82 441 383
197 2 11 7 3 30 480 29
198 2 11 7 3 212 466 304
199 2 11 7 3 354 591 375
200 2 11 7 3 130 658 280
201 2 11 7 3 223 569 292
202 2 11 7 3 265 482 188
203 2 11 7 3 406 525 349
204 2 11 7 3 158 629 319
205 2 11 7 3 137 425 282
206 2 11 7 3 280 513 130
207 2 11 7 3 159 651 284
208 2 11 7 3 306 740 51
209 2 11 7 3 170 357 306
210 2 11 7 3 276 750 166
211 2 11 7 3 313 505 133
212 2 11 7 3 110 343 111
213 2 11 7 3 278 634 364
214 2 11 7 3 476 721 42
215 2 11 7 3 26 328 25
216 2 11 7 3 279 487 149
217 2 11 7 3 292 529 223
218 2 11 7 3 289 462 121
219 2 11 7 3 163 443 283
220 2 11 7 3 294 514 150
221 2 11 7 3 364 634 180
222 2 11 7 3 131 372 337
223 2 11 7 3 128 493 263
224 2 11 7 3 150 474 264
225 2 11 7 3 270 524 114
226 2 11 7 3 319 629 230
227 2 11 7 3 17 317 16
228 2 11 7 3 277 420 191
229 2 11 7 3 263 493 198
230 2 11 7 3 148 682 271
231 2 11 7 3 233 632 297
232 2 11 7 3 321 436 61
233 2 11 7 3 58 450 331
234 2 11 7 3 117 421 288
235 2 11 7 3 128 378 312
236 2 11 7 3 275 653 189
237 2 11 7 3 292 573 135
238 2 11 7 3 265 514 294
239 2 11 7 3 58 331 57
240 2 11 7 3 272 418 80
241 2 11 7 3 121 729 289
242 2 11 7 3 328 404 25
243 2 11 7 3 186 376 301
244 2 11 7 3 303 535 214
245 2 11 7 3 271 492 148
246 2 11 7 3 352 449 158
247 2 11 7 3 335 639 162
248 2 11 7 3 286 436 179
249 2 11 7 3 415 568 137
250 2 11 7 3 306 414 170
251 2 11 7 3 153 595 297
252 2 11 7 3 410 420 224
253 2 11 7 3 156 571 293
254 2 11 7 3 191 420 410
255 2 11 7 3 201 487 279
256 2 11 7 3 280 460 195
257 2 11 7 3 162 525 335
258 2 11 7 3 62 759 321
259 2 11 7 3 321 759 63
260 2 11 7 3 90 455 400
261 2 11 7 3 149 589 279
262 2 11 7 3 241 465 412
263 2 11 7 3 471 492 190
264 2 11 7 3 507 664 242
265 2 11 7 3 319 602 158
266 2 11 7 3 221 540 320
267 2 11 7 3 294 647 265
268 2 11 7 3 12 325 11
269 2 11 7 3 297 632 123
270 2 11 7 3 292 569 332
271 2 11 7 3 212 437 363
272 2 11 7 3 311 727 120
273 2 11 7 3 412 465 207
274 2 11 7 3 295 405 190
275 2 11 7 3 175 370 353
276 2 11 7 3 282 758 523
277 2 11 7 3 307 403 156
278 2 11 7 3 214 571 303
279 2 11 7 3 7 581 564
280 2 11 7 3 381 467 185
281 2 11 7 3 227 449 352
282 2 11 7 3 284 488 194
283 2 11 7 3 195 513 280
284 2 11 7 3 167 530 429
285 2 11 7 3 552 656 244
286 2 11 7 3 279 721 476
287 2 11 7 3 390 415 209
288 2 11 7 3 191 483 277
289 2 11 7 3 335 525 251
290 2 11 7 3 184 444 369
291 2 11 7 3 273 492 471
292 2 11 7 3 95 623 94
293 2 11 7 3 320 540 132
294 2 11 7 3 120 727 327
295 2 11 7 3 301 704 330
296 2 11 7 3 174 582 283
297 2 11 7 3 273 663 521
298 2 11 7 3 369 444 219
299 2 11 7 3 298 572 168
300 2 11 7 3 347 665 161
301 2 11 7 3 181 726 296
302 2 11 7 3 203 516 309
303 2 11 7 3 110 543 343
304 2 11 7 3 592 614 243
305 2 11 7 3 154 579 287
306 2 11 7 3 279 476 201
307 2 11 7 3 293 673 480
308 2 11 7 3 429 530 290
309 2 11 7 3 185 415 390
310 2 11 7 3 341 642 240
311 2 11 7 3 177 687 517
312 2 11 7 3 343 694 679
313 2 11 7 3 383 441 187
314 2 11 7 3 229 506 316
315 2 11 7 3 344 437 196
316 2 11 7 3 263 585 338
317 2 11 7 3 156 403 303
318 2 11 7 3 288 512 217
319 2 11 7 3 197 463 268
320 2 11 7 3 8 581 7
321 2 11 7 3 363 437 134
322 2 11 7 3 133 486 313
323 2 11 7 3 296 498 181
324 2 11 7 3 424 531 220
325 2 11 7 3 285 531 424
326 2 11 7 3 256 517 401
327 2 11 7 3 154 468 301
328 2 11 7 3 358 720 326
329 2 11 7 3 120 566 305
330 2 11 7 3 297 425 233
331 2 11 7 3 401 517 125
332 2 11 7 3 443 683 117
333 2 11 7 3 247 694 343
334 2 11 7 3 150 447 294
335 2 11 7 3 321 389 179
336 2 11 7 3 341 747 642
337 2 11 7 3 261 581 310
338 2 11 7 3 115 370 365
339 2 11 7 3 312 378 237
340 2 11 7 3 365 370 198
341 2 11 7 3 546 580 396
342 2 11 7 3 165 557 316
343 2 11 7 3 126 416 319
344 2 11 7 3 189 667 329
345 2 11 7 3 351 429 263
346 2 11 7 3 150 514 362
347 2 11 7 3 322 597 121
348 2 11 7 3 17 459 317
349 2 11 7 3 156 454 307
350 2 11 7 3 324 686 235
351 2 11 7 3 349 726 181
352 2 11 7 3 216 555 315
353 2 11 7 3 242 597 322
354 2 11 7 3 268 539 197
355 2 11 7 3 317 453 16
356 2 11 7 3 411 480 31
357 2 11 7 3 303 571 156
358 2 11 7 3 335 559 249
359 2 11 7 3 289 650 462
360 2 11 7 3 412 478 22
361 2 11 7 3 517 687 299
362 2 11 7 3 134 437 344
363 2 11 7 3 123 632 304
364 2 11 7 3 142 509 433
365 2 11 7 3 300 662 164
366 2 11 7 3 128 429 290
367 2 11 7 3 152 601 308
368 2 11 7 3 173 697 328
369 2 11 7 3 129 408 303
370 2 11 7 3 163 502 336
371 2 11 7 3 430 601 152
372 2 11 7 3 308 601 233
373 2 11 7 3 284 651 392
374 2 11 7 3 140 546 396
375 2 11 7 3 304 601 430
376 2 11 7 3 202 600 474
377 2 11 7 3 190 438 295
378 2 11 7 3 179 436 321
379 2 11 7 3 351 556 167
380 2 11 7 3 334 566 120
381 2 11 7 3 327 419 120
382 2 11 7 3 235 651 324
383 2 11 7 3 466 515 123
384 2 11 7 3 155 516 292
385 2 11 7 3 127 618 350
386 2 11 7 3 545 597 291
387 2 11 7 3 353 370 115
388 2 11 7 3 351 715 556
389 2 11 7 3 201 505 487
390 2 11 7 3 521 663 124
391 2 11 7 3 298 515 466
392 2 11 7 3 316 557 229
393 2 11 7 3 290 615 128
394 2 11 7 3 127 731 618
395 2 11 7 3 331 450 195
396 2 11 7 3 293 571 380
397 2 11 7 3 390 746 682
398 2 11 7 3 312 493 128
399 2 11 7 3 182 701 658
400 2 11 7 3 309 518 203
401 2 11 7 3 348 497 143
402 2 11 7 3 226 490 325
403 2 11 7 3 369 532 184
404 2 11 7 3 287 478 207
405 2 11 7 3 309 623 96
406 2 11 7 3 393 620 169
407 2 11 7 3 378 615 186
408 2 11 7 3 462 650 199
409 2 11 7 3 96 518 309
410 2 11 7 3 186 615 376
411 2 11 7 3 372 527 337
412 2 11 7 3 200 449 400
413 2 11 7 3 167 429 351
414 2 11 7 3 310 581 9
415 2 11 7 3 259 645 346
416 2 11 7 3 285 620 393
417 2 11 7 3 386 701 182
418 2 11 7 3 423 667 189
419 2 11 7 3 290 695 376
420 2 11 7 3 376 695 154
421 2 11 7 3 399 472 127
422 2 11 7 3 46 356 45
423 2 11 7 3 267 717 342
424 2 11 7 3 117 382 368
425 2 11 7 3 342 424 134
426 2 11 7 3 123 656 297
427 2 11 7 3 330 508 218
428 2 11 7 3 328 697 404
429 2 11 7 3 449 629 158
430 2 11 7 3 400 455 200
431 2 11 7 3 316 706 165
432 2 11 7 3 310 578 160
433 2 11 7 3 168 574 298
434 2 11 7 3 325 490 11
435 2 11 7 3 445 600 202
436 2 11 7 3 184 532 403
437 2 11 7 3 346 645 133
438 2 11 7 3 323 738 166
439 2 11 7 3 244 515 413
440 2 11 7 3 338 585 175
441 2 11 7 3 318 666 219
442 2 11 7 3 219 631 318
443 2 11 7 3 342 717 169
444 2 11 7 3 141 417 318
445 2 11 7 3 239 602 319
446 2 11 7 3 248 664 339
447 2 11 7 3 293 480 205
448 2 11 7 3 555 640 315
449 2 11 7 3 515 652 413
450 2 11 7 3 324 651 159
451 2 11 7 3 237 626 312
452 2 11 7 3 15 453 446
453 2 11 7 3 312 626 157
454 2 11 7 3 120 609 334
455 2 11 7 3 322 507 242
456 2 11 7 3 516 718 309
457 2 11 7 3 517 753 177
458 2 11 7 3 245 644 329
459 2 11 7 3 510 750 276
460 2 11 7 3 225 520 439
461 2 11 7 3 121 597 545
462 2 11 7 3 368 382 211
463 2 11 7 3 682 746 271
464 2 11 7 3 359 431 252
465 2 11 7 3 77 358 76
466 2 11 7 3 296 726 639
467 2 11 7 3 242 664 473
468 2 11 7 3 318 677 141
469 2 11 7 3 326 558 192
470 2 11 7 3 296 639 340
471 2 11 7 3 49 357 48
472 2 11 7 3 247 675 593
473 2 11 7 3 264 763 447
474 2 11 7 3 303 532 129
475 2 11 7 3 86 352 85
476 2 11 7 3 83 441 82
477 2 11 7 3 337 522 131
478 2 11 7 3 175 585 370
479 2 11 7 3 343 543 247
480 2 11 7 3 390 682 185
481 2 11 7 3 348 743 497
482 2 11 7 3 304 716 212
483 2 11 7 3 337 670 157
484 2 11 7 3 12 495 325
485 2 11 7 3 254 526 396
486 2 11 7 3 381 682 148
487 2 11 7 3 307 707 403
488 2 11 7 3 466 572 298
489 2 11 7 3 364 705 278
490 2 11 7 3 403 707 184
491 2 11 7 3 470 686 324
492 2 11 7 3 9 565 310
493 2 11 7 3 121 462 322
494 2 11 7 3 360 430 152
495 2 11 7 3 255 670 337
496 2 11 7 3 427 736 660
497 2 11 7 3 26 501 328
498 2 11 7 3 408 535 303
499 2 11 7 3 343 550 111
500 2 11 7 3 679 694 172
501 2 11 7 3 32 547 411
502 2 11 7 3 348 545 291
503 2 11 7 3 329 433 189
504 2 11 7 3 32 411 31
505 2 11 7 3 202 711 371
506 2 11 7 3 134 742 342
507 2 11 7 3 402 675 247
508 2 11 7 3 400 449 227
509 2 11 7 3 116 479 323
510 2 11 7 3 31 480 30
511 2 11 7 3 308 467 152
512 2 11 7 3 131 705 364
513 2 11 7 3 34 392 33
514 2 11 7 3 427 660 144
515 2 11 7 3 323 567 116
516 2 11 7 3 341 536 216
517 2 11 7 3 399 625 472
518 2 11 7 3 531 734 74
519 2 11 7 3 326 574 168
520 2 11 7 3 210 551 374
521 2 11 7 3 319 613 239
522 2 11 7 3 180 456 364
523 2 11 7 3 159 431 359
524 2 11 7 3 281 687 590
525 2 11 7 3 551 555 374
526 2 11 7 3 233 568 308
527 2 11 7 3 664 728 339
528 2 11 7 3 114 434 361
529 2 11 7 3 372 464 164
530 2 11 7 3 333 764 300
531 2 11 7 3 146 664 507
532 2 11 7 3 179 591 354
533 2 11 7 3 236 679 379
534 2 11 7 3 157 461 337
535 2 11 7 3 214 501 380
536 2 11 7 3 262 591 389
537 2 11 7 3 389 591 179
538 2 11 7 3 113 520 3
539 2 11 7 3 197 539 320
540 2 11 7 3 192 574 326
541 2 11 7 3 196 567 323
542 2 11 7 3 385 653 275
543 2 11 7 3 312 519 493
544 2 11 7 3 408 710 699
545 2 11 7 3 229 655 506
546 2 11 7 3 127 472 316
547 2 11 7 3 148 536 341
548 2 11 7 3 356 635 45
549 2 11 7 3 371 500 202
550 2 11 7 3 130 653 385
551 2 11 7 3 295 751 405
552 2 11 7 3 346 706 259
553 2 11 7 3 42 721 41
554 2 11 7 3 132 548 320
555 2 11 7 3 153 552 482
556 2 11 7 3 486 650 313
557 2 11 7 3 332 685 155
558 2 11 7 3 86 681 352
559 2 11 7 3 15 446 14
560 2 11 7 3 189 653 375
561 2 11 7 3 385 658 130
562 2 11 7 3 320 612 221
563 2 11 7 3 155 718 516
564 2 11 7 3 100 559 335
565 2 11 7 3 421 512 288
566 2 11 7 3 428 485 237
567 2 11 7 3 136 470 324
568 2 11 7 3 471 663 273
569 2 11 7 3 359 663 633
570 2 11 7 3 336 538 146
571 2 11 7 3 316 731 127
572 2 11 7 3 618 731 314
573 2 11 7 3 347 485 119
574 2 11 7 3 188 451 362
575 2 11 7 3 493 519 198
576 2 11 7 3 324 619 136
577 2 11 7 3 339 479 248
578 2 11 7 3 482 552 302
579 2 11 7 3 469 614 143
580 2 11 7 3 191 511 409
581 2 11 7 3 53 725 414
582 2 11 7 3 330 704 508
583 2 11 7 3 103 398 102
584 2 11 7 3 22 478 21
585 2 11 7 3 328 535 173
586 2 11 7 3 525 726 349
587 2 11 7 3 141 481 387
588 2 11 7 3 195 460 331
589 2 11 7 3 387 669 161
590 2 11 7 3 350 732 127
591 2 11 7 3 337 527 255
592 2 11 7 3 98 440 97
593 2 11 7 3 320 548 197
594 2 11 7 3 329 577 245
595 2 11 7 3 341 638 148
596 2 11 7 3 226 578 310
597 2 11 7 3 625 645 259
598 2 11 7 3 481 524 270
599 2 11 7 3 3 520 107
600 2 11 7 3 362 748 150
601 2 11 7 3 183 448 350
602 2 11 7 3 330 722 186
603 2 11 7 3 196 430 360
604 2 11 7 3 159 633 324
605 2 11 7 3 158 602 352
606 2 11 7 3 310 565 226
607 2 11 7 3 135 604 333
608 2 11 7 3 204 485 347
609 2 11 7 3 68 577 329
610 2 11 7 3 388 661 238
611 2 11 7 3 345 452 176
612 2 11 7 3 157 519 312
613 2 11 7 3 93 409 92
614 2 11 7 3 442 540 193
615 2 11 7 3 387 481 270
616 2 11 7 3 208 524 481
617 2 11 7 3 151 640 555
618 2 11 7 3 165 706 346
619 2 11 7 3 238 624 388
620 2 11 7 3 336 702 163
621 2 11 7 3 364 456 215
622 2 11 7 3 34 745 392
623 2 11 7 3 405 751 136
624 2 11 7 3 187 427 383
625 2 11 7 3 461 522 337
626 2 11 7 3 90 400 89
627 2 11 7 3 166 503 344
628 2 11 7 3 383 427 272
629 2 11 7 3 318 494 209
630 2 11 7 3 23 412 22
631 2 11 7 3 75 531 74
632 2 11 7 3 497 743 210
633 2 11 7 3 140 715 351
634 2 11 7 3 277 718 420
635 2 11 7 3 169 672 393
636 2 11 7 3 214 535 328
637 2 11 7 3 324 633 234
638 2 11 7 3 331 674 266
639 2 11 7 3 315 747 341
640 2 11 7 3 162 726 525
641 2 11 7 3 65 389 64
642 2 11 7 3 240 467 381
643 2 11 7 3 409 617 92
644 2 11 7 3 335 709 100
645 2 11 7 3 53 414 52
646 2 11 7 3 222 538 336
647 2 11 7 3 219 452 369
648 2 11 7 3 266 576 331
649 2 11 7 3 373 647 114
650 2 11 7 3 37 395 36
651 2 11 7 3 178 512 421
652 2 11 7 3 194 488 395
653 2 11 7 3 215 464 372
654 2 11 7 3 20 477 19
655 2 11 7 3 633 663 234
656 2 11 7 3 82 383 81
657 2 11 7 3 129 710 408
658 2 11 7 3 258 635 356
659 2 11 7 3 365 608 115
660 2 11 7 3 356 739 258
661 2 11 7 3 209 677 318
662 2 11 7 3 393 672 281
663 2 11 7 3 20 724 477
664 2 11 7 3 46 491 356
665 2 11 7 3 350 554 217
666 2 11 7 3 540 575 193
667 2 11 7 3 416 613 319
668 2 11 7 3 166 738 339
669 2 11 7 3 25 404 24
670 2 11 7 3 564 581 261
671 2 11 7 3 274 533 371
672 2 11 7 3 119 624 347
673 2 11 7 3 171 606 396
674 2 11 7 3 384 465 241
675 2 11 7 3 396 606 254
676 2 11 7 3 353 560 175
677 2 11 7 3 40 721 366
678 2 11 7 3 346 739 165
679 2 11 7 3 234 619 324
680 2 11 7 3 358 610 76
681 2 11 7 3 351 680 140
682 2 11 7 3 409 511 253
683 2 11 7 3 485 730 237
684 2 11 7 3 206 596 366
685 2 11 7 3 414 713 170
686 2 11 7 3 329 667 68
687 2 11 7 3 165 739 356
688 2 11 7 3 91 455 90
689 2 11 7 3 146 507 336
690 2 11 7 3 130 513 354
691 2 11 7 3 371 711 274
692 2 11 7 3 78 558 326
693 2 11 7 3 436 755 60
694 2 11 7 3 366 589 206
695 2 11 7 3 114 647 434
696 2 11 7 3 339 728 276
697 2 11 7 3 200 496 367
698 2 11 7 3 328 501 214
699 2 11 7 3 355 486 133
700 2 11 7 3 333 529 135
701 2 11 7 3 291 743 348
702 2 11 7 3 367 496 138
703 2 11 7 3 398 463 197
704 2 11 7 3 414 725 269
705 2 11 7 3 376 615 290
706 2 11 7 3 124 663 359
707 2 11 7 3 342 503 267
708 2 11 7 3 61 436 60
709 2 11 7 3 198 519 365
710 2 11 7 3 329 644 433
711 2 11 7 3 286 741 450
712 2 11 7 3 103 463 398
713 2 11 7 3 434 647 294
714 2 11 7 3 331 576 57
715 2 11 7 3 364 719 131
716 2 11 7 3 336 502 222
717 2 11 7 3 409 483 191
718 2 11 7 3 175 560 334
719 2 11 7 3 371 533 230
720 2 11 7 3 273 536 492
721 2 11 7 3 432 735 269
722 2 11 7 3 326 720 78
723 2 11 7 3 440 518 97
724 2 11 7 3 639 726 162
725 2 11 7 3 265 647 373
726 2 11 7 3 106 426 105
727 2 11 7 3 349 604 135
728 2 11 7 3 405 471 190
729 2 11 7 3 384 699 260
730 2 11 7 3 377 481 141
731 2 11 7 3 354 741 286
732 2 11 7 3 492 536 148
733 2 11 7 3 266 674 448
734 2 11 7 3 496 511 138
735 2 11 7 3 161 665 387
736 2 11 7 3 255 608 365
737 2 11 7 3 122 749 332
738 2 11 7 3 218 534 330
739 2 11 7 3 118 598 438
740 2 11 7 3 360 567 196
741 2 11 7 3 497 504 252
742 2 11 7 3 268 588 539
743 2 11 7 3 240 638 341
744 2 11 7 3 67 423 66
745 2 11 7 3 279 589 366
746 2 11 7 3 138 511 410
747 2 11 7 3 236 550 343
748 2 11 7 3 71 394 70
749 2 11 7 3 133 505 346
750 2 11 7 3 207 478 412
751 2 11 7 3 444 598 118
752 2 11 7 3 359 633 159
753 2 11 7 3 379 679 172
754 2 11 7 3 164 616 333
755 2 11 7 3 332 569 122
756 2 11 7 3 352 681 227
757 2 11 7 3 44 435 43
758 2 11 7 3 334 560 193
759 2 11 7 3 192 558 418
760 2 11 7 3 138 500 371
761 2 11 7 3 338 680 263
762 2 11 7 3 152 693 360
763 2 11 7 3 193 566 334
764 2 11 7 3 88 544 6
765 2 11 7 3 39 422 38
766 2 11 7 3 270 669 387
767 2 11 7 3 168 562 358
768 2 11 7 3 420 718 155
769 2 11 7 3 23 570 412
770 2 11 7 3 181 604 349
771 2 11 7 3 133 645 355
772 2 11 7 3 138 621 367
773 2 11 7 3 325 606 171
774 2 11 7 3 265 563 482
775 2 11 7 3 472 706 316
776 2 11 7 3 340 760 296
777 2 11 7 3 6 544 87
778 2 11 7 3 482 563 153
779 2 11 7 3 357 542 48
780 2 11 7 3 430 716 304
781 2 11 7 3 269 725 432
782 2 11 7 3 210 504 497
783 2 11 7 3 344 742 134
784 2 11 7 3 442 498 132
785 2 11 7 3 232 627 355
786 2 11 7 3 280 701 460
787 2 11 7 3 146 728 664
788 2 11 7 3 352 484 85
789 2 11 7 3 228 545 348
790 2 11 7 3 434 447 180
791 2 11 7 3 334 689 175
792 2 11 7 3 221 586 575
793 2 11 7 3 217 732 350
794 2 11 7 3 435 476 43
795 2 11 7 3 18 459 17
796 2 11 7 3 358 562 220
797 2 11 7 3 285 734 531
798 2 11 7 3 205 480 411
799 2 11 7 3 416 761 736
800 2 11 7 3 411 547 235
801 2 11 7 3 356 557 165
802 2 11 7 3 114 524 373
803 2 11 7 3 395 488 36
804 2 11 7 3 65 692 389
805 2 11 7 3 220 610 358
806 2 11 7 3 294 447 434
807 2 11 7 3 575 586 305
808 2 11 7 3 44 635 435
809 2 11 7 3 124 504 374
810 2 11 7 3 355 668 232
811 2 11 7 3 419 609 120
812 2 11 7 3 544 681 87
813 2 11 7 3 443 457 232
814 2 11 7 3 388 534 218
815 2 11 7 3 363 572 212
816 2 11 7 3 169 620 342
817 2 11 7 3 387 665 238
818 2 11 7 3 401 678 256
819 2 11 7 3 143 592 458
820 2 11 7 3 93 483 409
821 2 11 7 3 416 736 187
822 2 11 7 3 350 618 183
823 2 11 7 3 9 581 8
824 2 11 7 3 390 494 118
825 2 11 7 3 253 617 409
826 2 11 7 3 2 564 108
827 2 11 7 3 163 457 443
828 2 11 7 3 234 471 405
829 2 11 7 3 317 607 556
830 2 11 7 3 263 680 351
831 2 11 7 3 139 465 384
832 2 11 7 3 283 582 502
833 2 11 7 3 422 596 206
834 2 11 7 3 170 655 357
835 2 11 7 3 286 755 436
836 2 11 7 3 150 748 474
837 2 11 7 3 119 534 388
838 2 11 7 3 56 576 541
839 2 11 7 3 446 453 213
840 2 11 7 3 401 553 222
841 2 11 7 3 556 607 167
842 2 11 7 3 474 748 711
843 2 11 7 3 392 745 284
844 2 11 7 3 16 453 15
845 2 11 7 3 208 481 377
846 2 11 7 3 423 692 66
847 2 11 7 3 699 710 260
848 2 11 7 3 366 596 40
849 2 11 7 3 241 697 384
850 2 11 7 3 251 709 335
851 2 11 7 3 80 418 79
852 2 11 7 3 450 741 195
853 2 11 7 3 361 669 270
854 2 11 7 3 546 689 246
855 2 11 7 3 211 509 391
856 2 11 7 3 482 611 188
857 2 11 7 3 215 719 364
858 2 11 7 3 269 713 414
859 2 11 7 3 374 521 124
860 2 11 7 3 134 643 363
861 2 11 7 3 164 527 372
862 2 11 7 3 457 636 199
863 2 11 7 3 135 573 406
864 2 11 7 3 282 563 373
865 2 11 7 3 176 630 345
866 2 11 7 3 37 605 395
867 2 11 7 3 343 679 236
868 2 11 7 3 422 592 243
869 2 11 7 3 77 720 358
870 2 11 7 3 178 668 355
871 2 11 7 3 173 699 384
872 2 11 7 3 141 677 377
873 2 11 7 3 691 739 346
874 2 11 7 3 548 649 197
875 2 11 7 3 377 677 209
876 2 11 7 3 374 504 210
877 2 11 7 3 391 509 142
878 2 11 7 3 389 692 262
879 2 11 7 3 246 580 546
880 2 11 7 3 199 636 462
881 2 11 7 3 362 514 188
882 2 11 7 3 203 518 440
883 2 11 7 3 238 561 387
884 2 11 7 3 224 744 410
885 2 11 7 3 43 476 42
886 2 11 7 3 357 655 542
887 2 11 7 3 125 553 401
888 2 11 7 3 302 611 482
889 2 11 7 3 180 763 456
890 2 11 7 3 271 733 492
891 2 11 7 3 282 595 563
892 2 11 7 3 733 746 438
893 2 11 7 3 417 666 318
894 2 11 7 3 489 764 181
895 2 11 7 3 217 554 386
896 2 11 7 3 537 578 226
897 2 11 7 3 399 512 178
898 2 11 7 3 201 476 435
899 2 11 7 3 450 755 286
900 2 11 7 3 434 634 361
901 2 11 7 3 397 522 204
902 2 11 7 3 104 463 103
903 2 11 7 3 448 674 147
904 2 11 7 3 542 655 229
905 2 11 7 3 539 588 145
906 2 11 7 3 96 623 95
907 2 11 7 3 174 678 401
908 2 11 7 3 209 494 390
909 2 11 7 3 28 673 380
910 2 11 7 3 363 562 168
911 2 11 7 3 448 757 266
912 2 11 7 3 205 737 454
913 2 11 7 3 438 746 118
914 2 11 7 3 230 629 367
915 2 11 7 3 128 615 378
916 2 11 7 3 41 721 40
917 2 11 7 3 367 621 230
918 2 11 7 3 422 605 38
919 2 11 7 3 371 621 138
920 2 11 7 3 327 578 537
921 2 11 7 3 115 608 489
922 2 11 7 3 168 572 363
923 2 11 7 3 206 592 422
924 2 11 7 3 377 523 208
925 2 11 7 3 97 518 96
926 2 11 7 3 402 543 109
927 2 11 7 3 388 624 119
928 2 11 7 3 172 586 379
929 2 11 7 3 206 589 475
930 2 11 7 3 451 703 362
931 2 11 7 3 206 475 458
932 2 11 7 3 55 432 54
933 2 11 7 3 658 701 280
934 2 11 7 3 460 701 147
935 2 11 7 3 112 550 439
936 2 11 7 3 87 681 86
937 2 11 7 3 384 697 173
938 2 11 7 3 410 511 191
939 2 11 7 3 183 735 432
940 2 11 7 3 7 564 2
941 2 11 7 3 209 648 377
942 2 11 7 3 161 752 397
943 2 11 7 3 470 737 205
944 2 11 7 3 448 554 350
945 2 11 7 3 340 649 548
946 2 11 7 3 521 536 273
947 2 11 7 3 541 576 266
948 2 11 7 3 94 483 93
949 2 11 7 3 403 532 303
950 2 11 7 3 262 692 423
951 2 11 7 3 115 754 353
952 2 11 7 3 508 704 139
953 2 11 7 3 397 752 278
954 2 11 7 3 217 512 399
955 2 11 7 3 395 614 194
956 2 11 7 3 386 554 147
957 2 11 7 3 216 521 374
958 2 11 7 3 176 666 417
959 2 11 7 3 526 715 140
960 2 11 7 3 413 637 244
961 2 11 7 3 464 499 223
962 2 11 7 3 185 682 381
963 2 11 7 3 424 643 134
964 2 11 7 3 373 758 282
965 2 11 7 3 385 628 182
966 2 11 7 3 392 547 33
967 2 11 7 3 258 739 691
968 2 11 7 3 216 536 521
969 2 11 7 3 413 762 144
970 2 11 7 3 59 450 58
971 2 11 7 3 111 550 112
972 2 11 7 3 375 653 130
973 2 11 7 3 119 485 428
974 2 11 7 3 404 570 24
975 2 11 7 3 148 638 381
976 2 11 7 3 489 608 300
977 2 11 7 3 366 721 279
978 2 11 7 3 453 556 213
979 2 11 7 3 106 690 426
980 2 11 7 3 379 612 145
981 2 11 7 3 101 559 100
982 2 11 7 3 380 571 214
983 2 11 7 3 373 563 265
984 2 11 7 3 118 746 390
985 2 11 7 3 396 580 171
986 2 11 7 3 144 637 413
987 2 11 7 3 372 719 215
988 2 11 7 3 240 693 467
989 2 11 7 3 318 631 494
990 2 11 7 3 660 736 257
991 2 11 7 3 218 630 388
992 2 11 7 3 458 475 228
993 2 11 7 3 374 555 216
994 2 11 7 3 109 712 402
995 2 11 7 3 375 591 262
996 2 11 7 3 176 661 388
997 2 11 7 3 251 525 406
998 2 11 7 3 317 556 453
999 2 11 7 3 182 628 382
1000 2 11 7 3 395 605 243
1001 2 11 7 3 435 635 258
1002 2 11 7 3 327 537 419
1003 2 11 7 3 474 600 264
1004 2 11 7 3 131 719 372
1005 2 11 7 3 215 499 464
1006 2 11 7 3 370 585 198
1007 2 11 7 3 151 555 551
1008 2 11 7 3 407 753 599
1009 2 11 7 3 27 501 26
1010 2 11 7 3 417 661 176
1011 2 11 7 3 243 614 395
1012 2 11 7 3 173 535 408
1013 2 11 7 3 412 570 241
1014 2 11 7 3 498 760 132
1015 2 11 7 3 469 497 252
1016 2 11 7 3 222 582 401
1017 2 11 7 3 76 610 75
1018 2 11 7 3 737 751 307
1019 2 11 7 3 387 561 141
1020 2 11 7 3 563 595 153
1021 2 11 7 3 186 722 428
1022 2 11 7 3 487 714 149
1023 2 11 7 3 410 500 138
1024 2 11 7 3 426 588 268
1025 2 11 7 3 47 491 46
1026 2 11 7 3 365 670 255
1027 2 11 7 3 235 547 392
1028 2 11 7 3 243 605 422
1029 2 11 7 3 182 658 385
1030 2 11 7 3 196 716 430
1031 2 11 7 3 532 756 129
1032 2 11 7 3 456 654 215
1033 2 11 7 3 437 716 196
1034 2 11 7 3 225 588 426
1035 2 11 7 3 506 713 314
1036 2 11 7 3 600 654 264
1037 2 11 7 3 264 654 456
1038 2 11 7 3 391 678 174
1039 2 11 7 3 419 537 171
1040 2 11 7 3 401 582 174
1041 2 11 7 3 75 610 531
1042 2 11 7 3 599 753 256
1043 2 11 7 3 104 684 463
1044 2 11 7 3 524 758 373
1045 2 11 7 3 170 713 506
1046 2 11 7 3 369 756 532
1047 2 11 7 3 407 599 142
1048 2 11 7 3 379 586 221
1049 2 11 7 3 36 488 35
1050 2 11 7 3 13 495 12
1051 2 11 7 3 109 543 110
1052 2 11 7 3 382 628 211
1053 2 11 7 3 142 644 407
1054 2 11 7 3 208 758 524
1055 2 11 7 3 171 580 419
1056 2 11 7 3 313 714 487
1057 2 11 7 3 230 621 371
1058 2 11 7 3 710 756 345
1059 2 11 7 3 221 612 379
1060 2 11 7 3 241 570 404
1061 2 11 7 3 197 649 398
1062 2 11 7 3 143 497 469
1063 2 11 7 3 381 638 240
1064 2 11 7 3 399 732 217
1065 2 11 7 3 297 595 425
1066 2 11 7 3 410 744 500
1067 2 11 7 3 73 734 393
1068 2 11 7 3 425 595 282
1069 2 11 7 3 136 619 405
1070 2 11 7 3 275 723 385
1071 2 11 7 3 69 577 68
1072 2 11 7 3 253 511 496
1073 2 11 7 3 236 528 439
1074 2 11 7 3 184 598 444
1075 2 11 7 3 418 549 192
1076 2 11 7 3 199 650 486
1077 2 11 7 3 465 676 207
1078 2 11 7 3 392 651 235
1079 2 11 7 3 250 498 442
1080 2 11 7 3 137 648 415
1081 2 11 7 3 226 565 490
1082 2 11 7 3 177 659 394
1083 2 11 7 3 322 702 507
1084 2 11 7 3 477 724 287
1085 2 11 7 3 11 490 10
1086 2 11 7 3 676 704 301
1087 2 11 7 3 452 666 176
1088 2 11 7 3 472 625 259
1089 2 11 7 3 352 602 484
1090 2 11 7 3 398 641 102
1091 2 11 7 3 393 700 73
1092 2 11 7 3 137 568 425
1093 2 11 7 3 393 734 285
1094 2 11 7 3 396 526 140
1095 2 11 7 3 126 761 416
1096 2 11 7 3 126 703 451
1097 2 11 7 3 147 701 386
1098 2 11 7 3 407 644 245
1099 2 11 7 3 145 612 539
1100 2 11 7 3 519 670 365
1101 2 11 7 3 439 528 225
1102 2 11 7 3 207 676 468
1103 2 11 7 3 180 634 434
1104 2 11 7 3 538 553 276
1105 2 11 7 3 281 700 393
1106 2 11 7 3 523 758 208
1107 2 11 7 3 178 625 399
1108 2 11 7 3 246 609 419
1109 2 11 7 3 272 549 418
1110 2 11 7 3 408 699 173
1111 2 11 7 3 276 553 510
1112 2 11 7 3 406 573 203
1113 2 11 7 3 142 599 391
1114 2 11 7 3 394 594 70
1115 2 11 7 3 71 590 394
1116 2 11 7 3 380 673 293
1117 2 11 7 3 432 757 183
1118 2 11 7 3 452 756 369
1119 2 11 7 3 108 712 109
1120 2 11 7 3 517 622 125
1121 2 11 7 3 222 553 538
1122 2 11 7 3 432 725 54
1123 2 11 7 3 192 549 413
1124 2 11 7 3 140 680 546
1125 2 11 7 3 215 654 499
1126 2 11 7 3 427 762 272
1127 2 11 7 3 593 675 160
1128 2 11 7 3 445 749 122
1129 2 11 7 3 85 484 84
1130 2 11 7 3 463 684 268
1131 2 11 7 3 188 611 451
1132 2 11 7 3 127 732 399
1133 2 11 7 3 407 659 177
1134 2 11 7 3 460 674 331
1135 2 11 7 3 299 622 517
1136 2 11 7 3 300 764 489
1137 2 11 7 3 642 747 116
1138 2 11 7 3 441 613 187
1139 2 11 7 3 415 648 209
1140 2 11 7 3 624 665 347
1141 2 11 7 3 342 620 424
1142 2 11 7 3 539 612 320
1143 2 11 7 3 388 630 176
1144 2 11 7 3 402 712 261
1145 2 11 7 3 546 680 338
1146 2 11 7 3 637 660 302
1147 2 11 7 3 238 665 624
1148 2 11 7 3 405 619 234
1149 2 11 7 3 155 685 420
1150 2 11 7 3 129 756 710
1151 2 11 7 3 426 690 225
1152 2 11 7 3 428 722 119
1153 2 11 7 3 261 675 402
1154 2 11 7 3 510 553 125
1155 2 11 7 3 39 596 422
1156 2 11 7 3 227 698 400
1157 2 11 7 3 245 659 407
1158 2 11 7 3 426 684 105
1159 2 11 7 3 193 603 442
1160 2 11 7 3 634 752 361
1161 2 11 7 3 420 685 224
1162 2 11 7 3 404 697 241
1163 2 11 7 3 59 755 450
1164 2 11 7 3 291 587 551
1165 2 11 7 3 425 568 233
1166 2 11 7 3 204 522 461
1167 2 11 7 3 141 561 417
1168 2 11 7 3 247 543 402
1169 2 11 7 3 239 613 441
1170 2 11 7 3 345 756 452
1171 2 11 7 3 579 695 231
1172 2 11 7 3 454 737 307
1173 2 11 7 3 468 676 301
1174 2 11 7 3 400 698 89
1175 2 11 7 3 505 691 346
1176 2 11 7 3 418 558 79
1177 2 11 7 3 551 587 151
1178 2 11 7 3 446 646 14
1179 2 11 7 3 98 583 440
1180 2 11 7 3 355 627 486
1181 2 11 7 3 398 649 249
1182 2 11 7 3 411 686 205
1183 2 11 7 3 183 757 448
1184 2 11 7 3 56 541 55
1185 2 11 7 3 435 691 201
1186 2 11 7 3 419 580 246
1187 2 11 7 3 55 541 432
1188 2 11 7 3 144 762 427
1189 2 11 7 3 72 590 71
1190 2 11 7 3 231 695 530
1191 2 11 7 3 278 752 634
1192 2 11 7 3 232 668 421
1193 2 11 7 3 549 762 413
1194 2 11 7 3 132 540 442
1195 2 11 7 3 177 753 407
1196 2 11 7 3 421 683 232
1197 2 11 7 3 249 649 639
1198 2 11 7 3 70 594 69
1199 2 11 7 3 736 761 257
1200 2 11 7 3 639 649 340
1201 2 11 7 3 278 705 397
1202 2 11 7 3 451 611 257
1203 2 11 7 3 72 700 590
1204 2 11 7 3 223 616 464
1205 2 11 7 3 79 558 78
1206 2 11 7 3 122 600 445
1207 2 11 7 3 421 668 178
1208 2 11 7 3 440 583 251
1209 2 11 7 3 477 579 231
1210 2 11 7 3 107 690 106
1211 2 11 7 3 438 598 295
1212 2 11 7 3 249 641 398
1213 2 11 7 3 10 565 9
1214 2 11 7 3 227 681 544
1215 2 11 7 3 231 607 459
1216 2 11 7 3 187 613 416
1217 2 11 7 3 147 554 448
1218 2 11 7 3 258 691 435
1219 2 11 7 3 221 575 540
1220 2 11 7 3 136 751 737
1221 2 11 7 3 67 667 423
1222 2 11 7 3 157 670 519
1223 2 11 7 3 413 652 192
1224 2 11 7 3 713 735 314
1225 2 11 7 3 461 730 204
1226 2 11 7 3 491 557 356
1227 2 11 7 3 353 754 603
1228 2 11 7 3 268 684 426
1229 2 11 7 3 433 644 142
1230 2 11 7 3 199 627 457
1231 2 11 7 3 451 761 126
1232 2 11 7 3 117 683 421
1233 2 11 7 3 424 620 285
1234 2 11 7 3 441 657 239
1235 2 11 7 3 47 542 491
1236 2 11 7 3 78 720 77
1237 2 11 7 3 603 754 250
1238 2 11 7 3 459 607 317
1239 2 11 7 3 455 617 253
1240 2 11 7 3 220 643 424
1241 2 11 7 3 444 631 219
1242 2 11 7 3 184 707 598
1243 2 11 7 3 520 690 107
1244 2 11 7 3 69 594 577
1245 2 11 7 3 642 693 240
1246 2 11 7 3 51 740 4
1247 2 11 7 3 144 660 637
1248 2 11 7 3 4 740 50
1249 2 11 7 3 187 736 427
1250 2 11 7 3 287 579 477
1251 2 11 7 3 523 648 137
1252 2 11 7 3 125 622 510
1253 2 11 7 3 163 702 636
1254 2 11 7 3 212 572 466
1255 2 11 7 3 63 759 5
1256 2 11 7 3 235 686 411
1257 2 11 7 3 271 746 733
1258 2 11 7 3 5 759 62
1259 2 11 7 3 574 652 298
1260 2 11 7 3 459 696 231
1261 2 11 7 3 510 622 267
1262 2 11 7 3 439 550 236
1263 2 11 7 3 118 631 444
1264 2 11 7 3 360 693 642
1265 2 11 7 3 33 547 32
1266 2 11 7 3 491 542 229
1267 2 11 7 3 163 636 457
1268 2 11 7 3 48 542 47
1269 2 11 7 3 528 588 225
1270 2 11 7 3 239 657 484
1271 2 11 7 3 151 587 473
1272 2 11 7 3 218 688 630
1273 2 11 7 3 636 702 322
1274 2 11 7 3 254 646 446
1275 2 11 7 3 339 738 479
1276 2 11 7 3 100 709 99
1277 2 11 7 3 139 704 676
1278 2 11 7 3 685 749 224
1279 2 11 7 3 630 688 345
1280 2 11 7 3 212 716 437
1281 2 11 7 3 296 760 498
1282 2 11 7 3 490 565 10
1283 2 11 7 3 231 696 477
1284 2 11 7 3 492 733 190
1285 2 11 7 3 442 603 250
1286 2 11 7 3 192 652 574
1287 2 11 7 3 57 576 56
1288 2 11 7 3 464 616 164
1289 2 11 7 3 83 657 441
1290 2 11 7 3 74 734 73
1291 2 11 7 3 68 667 67
1292 2 11 7 3 40 596 39
1293 2 11 7 3 29 673 28
1294 2 11 7 3 458 592 206
1295 2 11 7 3 102 641 101
1296 2 11 7 3 157 626 461
1297 2 11 7 3 447 763 180
1298 2 11 7 3 499 569 223
1299 2 11 7 3 91 617 455
1300 2 11 7 3 232 683 443
1301 2 11 7 3 488 745 35
1302 2 11 7 3 194 614 469
1303 2 11 7 3 486 627 199
1304 2 11 7 3 456 763 264
1305 2 11 7 3 99 583 98
1306 2 11 7 3 640 671 315
1307 2 11 7 3 89 698 88
1308 2 11 7 3 149 584 475
1309 2 11 7 3 18 696 459
1310 2 11 7 3 24 570 23
1311 2 11 7 3 73 700 72
1312 2 11 7 3 190 733 438
1313 2 11 7 3 529 616 223
1314 2 11 7 3 14 646 13
1315 2 11 7 3 457 627 232
1316 2 11 7 3 205 686 470
1317 2 11 7 3 495 606 325
1318 2 11 7 3 445 744 224
1319 2 11 7 3 478 724 21
1320 2 11 7 3 475 584 228
1321 2 11 7 3 119 722 534
1322 2 11 7 3 248 671 640
1323 2 11 7 3 203 573 516
1324 2 11 7 3 530 607 231
1325 2 11 7 3 477 696 19
1326 2 11 7 3 473 587 242
1327 2 11 7 3 202 744 445
1328 2 11 7 3 229 557 491
1329 2 11 7 3 284 745 488
1330 2 11 7 3 224 749 445
1331 2 11 7 3 541 757 432
1332 2 11 7 3 561 661 417
1333 2 11 7 3 166 750 503
1334 2 11 7 3 462 636 322
1335 2 11 7 3 583 709 251
1336 2 11 7 3 484 602 239
1337 2 11 7 3 377 648 523
1338 2 11 7 3 147 674 460
1339 2 11 7 3 122 569 499
1340 2 11 7 3 473 640 151
1341 2 11 7 3 545 729 121
1342 2 11 7 3 479 738 323
1343 2 11 7 3 475 589 149
1344 2 11 7 3 234 663 471
1345 2 11 7 3 219 666 452
1346 2 11 7 3 494 631 118
1347 2 11 7 3 590 700 281
1348 2 11 7 3 506 731 316
1349 2 11 7 3 195 741 513
1350 2 11 7 3 506 655 170
1351 2 11 7 3 269 735 713
1352 2 11 7 3 552 637 302
1353 2 11 7 3 132 760 548
1354 2 11 7 3 274 703 533
1355 2 11 7 3 484 657 84
1356 2 11 7 3 13 646 495
1357 2 11 7 3 672 717 299
1358 2 11 7 3 467 693 152
1359 2 11 7 3 122 654 600
1360 2 11 7 3 513 741 354
1361 2 11 7 3 256 753 517
1362 2 11 7 3 38 605 37
1363 2 11 7 3 291 597 587
1364 2 11 7 3 548 760 340
1365 2 11 7 3 502 582 222
1366 2 11 7 3 84 657 83
1367 2 11 7 3 21 724 20
1368 2 11 7 3 626 730 461
1369 2 11 7 3 311 708 694
1370 2 11 7 3 363 643 562
1371 2 11 7 3 92 617 91
1372 2 11 7 3 332 749 685
1373 2 11 7 3 248 640 473
1374 2 11 7 3 116 671 479
1375 2 11 7 3 254 606 495
1376 2 11 7 3 250 754 489
1377 2 11 7 3 566 575 305
1378 2 11 7 3 473 664 248
1379 2 11 7 3 309 718 623
1380 2 11 7 3 19 696 18
1381 2 11 7 3 397 705 522
1382 2 11 7 3 594 659 245
1383 2 11 7 3 578 727 160
1384 2 11 7 3 531 610 220
1385 2 11 7 3 587 597 242
1386 2 11 7 3 394 659 594
1387 2 11 7 3 556 715 213
1388 2 11 7 3 507 702 336
1389 2 11 7 3 259 706 472
1390 2 11 7 3 515 656 123
1391 2 11 7 3 495 646 254
1392 2 11 7 3 516 573 292
1393 2 11 7 3 601 632 233
1394 2 11 7 3 101 641 559
1395 2 11 7 3 474 711 202
1396 2 11 7 3 562 643 220
1397 2 11 7 3 533 703 126
1398 2 11 7 3 211 723 509
1399 2 11 7 3 577 594 245
1400 2 11 7 3 45 635 44
1401 2 11 7 3 257 761 451
1402 2 11 7 3 88 698 544
1403 2 11 7 3 139 676 465
1404 2 11 7 3 479 671 248
1405 2 11 7 3 623 718 277
1406 2 11 7 3 500 744 202
1407 2 11 7 3 333 616 529
1408 2 11 7 3 598 707 295
1409 2 11 7 3 560 603 193
1410 2 11 7 3 522 705 131
1411 2 11 7 3 105 684 104
1412 2 11 7 3 304 632 601
1413 2 11 7 3 509 723 275
1414 2 11 7 3 503 742 344
1415 2 11 7 3 298 652 515
1416 2 11 7 3 260 688 508
1417 2 11 7 3 274 748 703
1418 2 11 7 3 544 698 227
1419 2 11 7 3 201 691 505
1420 2 11 7 3 499 654 122
1421 2 11 7 3 66 692 65
1422 2 11 7 3 204 730 485
1423 2 11 7 3 527 662 255
1424 2 11 7 3 703 748 362
1425 2 11 7 3 314 735 618
1426 2 11 7 3 287 724 478
1427 2 11 7 3 167 607 530
1428 2 11 7 3 136 737 470
1429 2 11 7 3 489 754 115
1430 2 11 7 3 508 688 218
1431 2 11 7 3 244 656 515
1432 2 11 7 3 694 708 172
1433 2 11 7 3 327 727 578
1434 2 11 7 3 54 725 53
1435 2 11 7 3 145 588 528
1436 2 11 7 3 35 745 34
1437 2 11 7 3 169 717 672
1438 2 11 7 3 503 750 267
1439 2 11 7 3 60 755 59
1440 2 11 7 3 261 712 564
1441 2 11 7 3 353 603 560
1442 2 11 7 3 193 575 566
1443 2 11 7 3 567 642 116
1444 2 11 7 3 608 662 300
1445 2 11 7 3 164 662 527
1446 2 11 7 3 172 708 586
1447 2 11 7 3 255 662 608
1448 2 11 7 3 299 717 622
1449 2 11 7 3 360 642 567
1450 2 11 7 3 244 637 552
1451 2 11 7 3 289 714 650
1452 2 11 7 3 213 715 526
1453 2 11 7 3 160 727 593
1454 2 11 7 3 116 747 671
1455 2 11 7 3 538 728 146
1456 2 11 7 3 314 731 506
1457 2 11 7 3 671 747 315
1458 2 11 7 3 311 694 593
1459 2 11 7 3 342 742 503
1460 2 11 7 3 246 689 609
1461 2 11 7 3 210 743 551
1462 2 11 7 3 650 714 313
1463 2 11 7 3 711 748 274
1464 2 11 7 3 149 714 584
1465 2 11 7 3 534 722 330
1466 2 11 7 3 599 678 391
1467 2 11 7 3 302 660 611
1468 2 11 7 3 559 641 249
1469 2 11 7 3 238 661 561
1470 2 11 7 3 225 690 520
1471 2 11 7 3 593 694 247
1472 2 11 7 3 609 689 334
1473 2 11 7 3 154 695 579
1474 2 11 7 3 551 743 291
1475 2 11 7 3 611 660 257
1476 2 11 7 3 276 728 538
1477 2 11 7 3 267 750 510
1478 2 11 7 3 530 695 290
1479 2 11 7 3 586 708 305
1480 2 11 7 3 228 729 545
1481 2 11 7 3 564 712 108
1482 2 11 7 3 584 714 289
1483 2 11 7 3 604 764 333
1484 2 11 7 3 593 727 311
1485 2 11 7 3 266 757 541
1486 2 11 7 3 99 709 583
1487 2 11 7 3 584 729 228
1488 2 11 7 3 256 678 599
1489 2 11 7 3 289 729 584
1490 2 11 7 3 299 687 672
1491 2 11 7 3 361 752 669
1492 2 11 7 3 181 764 604
1493 2 11 7 3 272 762 549
1494 2 11 7 3 237 730 626
1495 2 11 7 3 622 717 267
1496 2 11 7 3 260 710 688
1497 2 11 7 3 307 751 707
1498 2 11 7 3 628 723 211
1499 2 11 7 3 385 723 628
1500 2 11 7 3 672 687 281
1501 2 11 7 3 618 735 183
1502 2 11 7 3 688 710 345
1503 2 11 7 3 669 752 161
1504 2 11 7 3 707 751 295
$ENDELM
